(footprint "microSD_9Pin_Slot" (version 20211014) (generator pcbnew)
  (layer "F.Cu")
  (tedit 0)
  (attr smd)
  (fp_text reference "REF**" (at 0.0508 -9.8044 unlocked) (layer "F.SilkS")
    (effects (font (size 1 1) (thickness 0.15)))
    (tstamp f0e76840-f355-46b8-b414-2bb8faa69925)
  )
  (fp_text value "microSD_9Pin_Slot" (at 0 8.8138 unlocked) (layer "F.Fab")
    (effects (font (size 1 1) (thickness 0.15)))
    (tstamp 61e192c2-8145-4dd2-b489-1786ced662df)
  )
  (fp_text user "${REFERENCE}" (at 0 0 unlocked) (layer "F.Fab")
    (effects (font (size 1 1) (thickness 0.15)))
    (tstamp 584245f0-24ff-40e7-941c-a170ca1be4c6)
  )
  (fp_rect (start -7.239 -7.493) (end 7.2898 7.5438) (layer "F.SilkS") (width 0.12) (fill none) (tstamp b31f668c-f738-409d-ae7c-9d4f5eb0f2ca))
  (fp_rect (start -8.89 -8.5852) (end 8.8138 7.747) (layer "F.CrtYd") (width 0.05) (fill none) (tstamp e1a88dbe-12f6-40e2-8b36-28f823518467))
  (fp_rect (start -7.239 -7.4803) (end 7.2644 7.5311) (layer "F.Fab") (width 0.1) (fill none) (tstamp abed732e-b982-49f8-9b23-3244340a2720))
  (pad "" thru_hole circle (at -4.7244 3.6322) (size 1.5 1.5) (drill 1) (layers *.Cu *.Mask) (tstamp 219270a7-1683-4a43-9467-24a90fd167ab))
  (pad "" thru_hole circle (at 3.2512 3.6068) (size 1.5 1.5) (drill 1) (layers *.Cu *.Mask) (tstamp a7ed8943-0a04-4a83-8c3c-a7120e73d2ef))
  (pad "1" smd rect (at 2.3922 -7.3832) (size 0.8 2) (layers "F.Cu" "F.Paste" "F.Mask") (tstamp 8738d81a-e36a-4396-9388-db68198eda90))
  (pad "2" smd rect (at 1.2922 -7.3832) (size 0.8 2) (layers "F.Cu" "F.Paste" "F.Mask") (tstamp abc96cff-e7d2-4e30-aec8-89b4d6909368))
  (pad "3" smd rect (at 0.1922 -7.3832) (size 0.8 2) (layers "F.Cu" "F.Paste" "F.Mask") (tstamp dfb63377-b288-4119-b02c-b750fdee8e6e))
  (pad "4" smd rect (at -0.9078 -7.3832) (size 0.8 2) (layers "F.Cu" "F.Paste" "F.Mask") (tstamp 63a240d8-0c05-401a-b53b-06368ea73ddc))
  (pad "5" smd rect (at -2.0078 -7.3832) (size 0.8 2) (layers "F.Cu" "F.Paste" "F.Mask") (tstamp 3c6aca31-f31b-4815-be2f-e6a5514a5a6e))
  (pad "6" smd rect (at -3.1078 -7.3832) (size 0.8 2) (layers "F.Cu" "F.Paste" "F.Mask") (tstamp 22207481-a699-4ae4-98e4-1bf3dbbd79fd))
  (pad "7" smd rect (at -4.2078 -7.3832) (size 0.8 2) (layers "F.Cu" "F.Paste" "F.Mask") (tstamp 4987ad36-e84a-456f-8a25-7b76a71aa2b5))
  (pad "8" smd rect (at -5.3078 -7.3832) (size 0.8 2) (layers "F.Cu" "F.Paste" "F.Mask") (tstamp aa3ef6df-8df1-4218-98cc-fa34bc699fcd))
  (pad "9" smd rect (at -6.4262 -7.3914) (size 0.8 2) (layers "F.Cu" "F.Paste" "F.Mask") (tstamp efd27b0f-e656-41e4-abaa-603a78b9dffc))
  (pad "10" smd roundrect (at -7.9502 -6.5532) (size 1.45 2) (layers "F.Cu" "F.Paste" "F.Mask") (roundrect_rratio 0.25) (tstamp 6e79d3a4-1484-4a4f-bdcd-9673a26882dc))
  (pad "10" smd roundrect (at -7.8486 2.9718) (size 1.45 2.5) (layers "F.Cu" "F.Paste" "F.Mask") (roundrect_rratio 0.25) (tstamp 86dd1412-a6db-4f37-a529-b93f667c5101))
  (pad "10" smd roundrect (at 7.8994 3.0226) (size 1.45 2.5) (layers "F.Cu" "F.Paste" "F.Mask") (roundrect_rratio 0.25) (tstamp be5b6ae5-5be9-4b32-9429-75032a609e4a))
  (pad "10" smd roundrect (at 6.7818 -6.5786) (size 1.45 2) (layers "F.Cu" "F.Paste" "F.Mask") (roundrect_rratio 0.25) (tstamp f163573d-87f1-42a1-bf4e-059b91ca439f))
)
